<?xml version="1.0" encoding="UTF-8" standalone="no"?>
<!DOCTYPE svg PUBLIC "-//W3C//DTD SVG 1.1//EN" "http://www.w3.org/Graphics/SVG/1.1/DTD/svg11.dtd">
<svg width="100%" height="100%" viewBox="0 0 42 34" version="1.1" xmlns="http://www.w3.org/2000/svg" xmlns:xlink="http://www.w3.org/1999/xlink" xml:space="preserve" xmlns:serif="http://www.serif.com/" style="fill-rule:evenodd;clip-rule:evenodd;stroke-linejoin:round;stroke-miterlimit:2;">
    <g transform="matrix(1,0,0,1,-940.47,-1272.59)">
        <g transform="matrix(0.581168,0,0,0.581168,402.079,1127)">
            <g transform="matrix(0.222534,0,0,0.222534,905.031,193.547)">
                <path d="M416,288L208,512L96,368L137,333L208,407L384,256L416,288Z" style="fill:rgb(252,174,7);fill-rule:nonzero;"/>
            </g>
        </g>
    </g>
</svg>
