<?xml version="1.0" encoding="UTF-8" standalone="no"?>
<!DOCTYPE svg PUBLIC "-//W3C//DTD SVG 1.1//EN" "http://www.w3.org/Graphics/SVG/1.1/DTD/svg11.dtd">
<svg width="100%" height="100%" viewBox="0 0 40 40" version="1.1" xmlns="http://www.w3.org/2000/svg" xmlns:xlink="http://www.w3.org/1999/xlink" xml:space="preserve" xmlns:serif="http://www.serif.com/" style="fill-rule:evenodd;clip-rule:evenodd;stroke-linejoin:round;stroke-miterlimit:2;">
    <g transform="matrix(1,0,0,1,-690,-810)">
        <g transform="matrix(0.8,0,0,0.8,502,-222)">
            <g transform="matrix(1.25,0,0,1.25,-902.5,621.25)">
                <g transform="matrix(1,0,0,1,-31,-30)">
                    <circle cx="961" cy="585" r="20" style="fill:rgb(252,174,7);"/>
                </g>
                <g transform="matrix(4.04333e-17,0.660326,-0.529412,3.24171e-17,1252.09,-91.1291)">
                    <path d="M978.5,598L990,615L967,615L978.5,598Z" style="fill:white;"/>
                </g>
            </g>
        </g>
    </g>
</svg>
