<?xml version="1.0" encoding="UTF-8" standalone="no"?>
<!DOCTYPE svg PUBLIC "-//W3C//DTD SVG 1.1//EN" "http://www.w3.org/Graphics/SVG/1.1/DTD/svg11.dtd">
<svg width="100%" height="100%" viewBox="0 0 36 36" version="1.1" xmlns="http://www.w3.org/2000/svg" xmlns:xlink="http://www.w3.org/1999/xlink" xml:space="preserve" xmlns:serif="http://www.serif.com/" style="fill-rule:evenodd;clip-rule:evenodd;stroke-linejoin:round;stroke-miterlimit:2;">
    <g transform="matrix(1,0,0,1,-1433,-547)">
        <g transform="matrix(1,0,0,1,680,-665)">
            <g transform="matrix(0.782609,0,0,0.782609,-422.478,-3686.74)">
                <g transform="matrix(0.807018,0,0,0.807018,168,1212.41)">
                    <path d="M1681.5,6254C1697.23,6254 1710,6266.77 1710,6282.5C1710,6298.23 1697.23,6311 1681.5,6311C1665.77,6311 1653,6298.23 1653,6282.5C1653,6266.77 1665.77,6254 1681.5,6254ZM1681.5,6255.58C1696.36,6255.58 1708.42,6267.64 1708.42,6282.5C1708.42,6297.36 1696.36,6309.42 1681.5,6309.42C1666.64,6309.42 1654.58,6297.36 1654.58,6282.5C1654.58,6267.64 1666.64,6255.58 1681.5,6255.58Z" style="fill:rgb(252,174,7);"/>
                </g>
                <g transform="matrix(0.0143229,0,0,0.0143229,1514,6271.27)">
                    <path d="M0,1216C0,1286.72 57.279,1344 128.001,1344L1408,1344C1478.72,1344 1536,1286.72 1536,1216L1536,351.999C1536,281.28 1478.72,223.998 1408,223.998L128.001,224.001C57.282,224.001 -0,281.28 -0,352.002L-0,1216ZM471.039,784.959L178.239,490.239C153.951,465.918 153.951,426.558 178.239,402.24C202.59,377.919 241.95,377.919 266.238,402.24L733.44,870.048C752.319,888.609 783.393,888.609 801.951,870.048L1269.76,402.24C1294.08,377.919 1333.44,377.919 1357.76,402.24C1382.08,426.561 1382.08,465.921 1357.76,490.239L1064.64,784.959L1357.76,1077.73C1382.08,1102.05 1382.08,1141.41 1357.76,1165.73C1333.44,1190.04 1294.08,1190.05 1269.76,1165.73L976.959,873.246C976.959,873.246 885.471,966.366 868.83,983.007C842.88,1008.32 807.039,1024 768,1024C728.319,1024 692.481,1008 666.561,982.047C649.602,965.406 558.72,873.279 558.72,873.279L266.208,1165.76C241.92,1190.08 202.56,1190.08 178.209,1165.76C153.921,1141.44 153.921,1102.08 178.209,1077.76L471.039,784.959Z" style="fill:rgb(252,174,7);fill-rule:nonzero;"/>
                </g>
            </g>
        </g>
    </g>
</svg>
