[{
    "age": "1月",
    "visits": 202515
}, {
    "age": "2月",
    "visits": 188455
}, {
    "age": "3月",
    "visits": 180954
}, {
    "age": "4月",
    "visits": 332201
}, {
    "age": "5月",
    "visits": 512205
}, {
    "age": "6月",
    "visits": 711404
},{
    "age": "7月",
    "visits": 202503
}, {
    "age": "8月",
    "visits": 388202
}, {
    "age": "9月",
    "visits": 18090
}, {
    "age": "10月",
    "visits": 532201
}, {
    "age": "11月",
    "visits": 812201
}, {
    "age": "12",
    "visits": 211401
}]