<?xml version="1.0" encoding="UTF-8" standalone="no"?>
<!DOCTYPE svg PUBLIC "-//W3C//DTD SVG 1.1//EN" "http://www.w3.org/Graphics/SVG/1.1/DTD/svg11.dtd">
<svg width="100%" height="100%" viewBox="0 0 120 120" version="1.1" xmlns="http://www.w3.org/2000/svg" xmlns:xlink="http://www.w3.org/1999/xlink" xml:space="preserve" xmlns:serif="http://www.serif.com/" style="fill-rule:evenodd;clip-rule:evenodd;stroke-linejoin:round;stroke-miterlimit:2;">
    <g transform="matrix(1,0,0,1,-469.916,-3160)">
        <g transform="matrix(0.999153,0,0,1,-18.6703,-1349.5)">
            <g transform="matrix(2.30767,0,0,2.30767,489.001,4509.5)">
                <g>
                    <g id="圖層-1" serif:id="圖層 1">
                        <g>
                            <g id="圖層-11" serif:id="圖層 1">
                                <g transform="matrix(1,0,0,1,50,18.0005)">
                                    <path d="M0,24C0,25.102 -0.897,26 -2,26L-46,26C-47.103,26 -48,25.102 -48,24L-48,22L0,22L0,24ZM-28.819,32L-28.153,28L-19.847,28L-19.181,32L-28.819,32ZM-2,-10L-3,-10C-3.552,-10 -4,-9.553 -4,-9C-4,-8.447 -3.552,-8 -3,-8L-2,-8C-0.897,-8 0,-7.103 0,-6L0,20L-48,20L-48,-6C-48,-7.103 -47.103,-8 -46,-8L-37,-8C-36.448,-8 -36,-8.447 -36,-9C-36,-9.553 -36.448,-10 -37,-10L-46,-10C-48.206,-10 -50,-8.207 -50,-6L-50,24C-50,26.206 -48.206,28 -46,28L-30.181,28L-30.847,32L-33,32C-33.552,32 -34,32.447 -34,33C-34,33.553 -33.552,34 -33,34L-15,34C-14.448,34 -14,33.553 -14,33C-14,32.447 -14.448,32 -15,32L-17.153,32L-17.819,28L-2,28C0.206,28 2,26.206 2,24L2,-6C2,-8.207 0.206,-10 -2,-10" style="fill:rgb(26,26,26);fill-rule:nonzero;"/>
                                </g>
                                <g transform="matrix(1,0,0,1,23,38)">
                                    <path d="M0,-4C-0.552,-4 -1,-3.553 -1,-3L-1,0L1,0L1,-3C1,-3.553 0.552,-4 0,-4" style="fill:rgb(252,174,7);fill-rule:nonzero;"/>
                                </g>
                                <g transform="matrix(1,0,0,1,13,38)">
                                    <path d="M0,-4C-0.552,-4 -1,-3.553 -1,-3L-1,0L1,0L1,-3C1,-3.553 0.552,-4 0,-4" style="fill:rgb(252,174,7);fill-rule:nonzero;"/>
                                </g>
                                <g transform="matrix(1,0,0,1,22,16)">
                                    <path d="M0,6C0,8.206 -1.794,10 -4,10C-6.206,10 -8,8.206 -8,6C-8,3.794 -6.206,2 -4,2C-1.794,2 0,3.794 0,6M18,-16L-2,-16C-4.206,-16 -6,-14.206 -6,-12L-6,0.35C-8.327,1.176 -10,3.394 -10,6C-10,8.262 -8.741,10.234 -6.887,11.257C-11.187,12.042 -14,14.594 -14,18L-14,22L-12,22L-12,18C-12,14.564 -7.853,13 -4,13C-0.147,13 4,14.564 4,18L4,22L6,22L6,18C6,14.594 3.187,12.042 -1.113,11.257C0.741,10.234 2,8.262 2,6C2,2.691 -0.691,0 -4,0L-4,-12C-4,-13.103 -3.103,-14 -2,-14L18,-14C19.103,-14 20,-13.103 20,-12L20,2C20,3.103 19.103,4 18,4L9,4C8.735,4 8.48,4.105 8.293,4.293L3.293,9.293C2.902,9.684 2.902,10.316 3.293,10.707C3.488,10.902 3.744,11 4,11C4.256,11 4.512,10.902 4.707,10.707L9.414,6L18,6C20.206,6 22,4.206 22,2L22,-12C22,-14.206 20.206,-16 18,-16" style="fill:rgb(252,174,7);fill-rule:nonzero;"/>
                                </g>
                                <g transform="matrix(1,0,0,1,23.5,10.5)">
                                    <path d="M0,1C-0.276,1 -0.5,0.775 -0.5,0.5C-0.5,0.225 -0.276,0 0,0C0.276,0 0.5,0.225 0.5,0.5C0.5,0.775 0.276,1 0,1M0,-1C-0.827,-1 -1.5,-0.327 -1.5,0.5C-1.5,1.327 -0.827,2 0,2C0.827,2 1.5,1.327 1.5,0.5C1.5,-0.327 0.827,-1 0,-1" style="fill:rgb(252,174,7);fill-rule:nonzero;"/>
                                </g>
                                <g transform="matrix(1,0,0,1,29.5,11)">
                                    <path d="M0,0C0,-0.275 0.224,-0.5 0.5,-0.5C0.776,-0.5 1,-0.275 1,0C1,0.275 0.776,0.5 0.5,0.5C0.224,0.5 0,0.275 0,0M2,0C2,-0.827 1.327,-1.5 0.5,-1.5C-0.327,-1.5 -1,-0.827 -1,0C-1,0.827 -0.327,1.5 0.5,1.5C1.327,1.5 2,0.827 2,0" style="fill:rgb(252,174,7);fill-rule:nonzero;"/>
                                </g>
                                <g transform="matrix(1,0,0,1,36,11)">
                                    <path d="M0,0C0,-0.275 0.224,-0.5 0.5,-0.5C0.776,-0.5 1,-0.275 1,0C1,0.275 0.776,0.5 0.5,0.5C0.224,0.5 0,0.275 0,0M2,0C2,-0.827 1.327,-1.5 0.5,-1.5C-0.327,-1.5 -1,-0.827 -1,0C-1,0.827 -0.327,1.5 0.5,1.5C1.327,1.5 2,0.827 2,0" style="fill:rgb(252,174,7);fill-rule:nonzero;"/>
                                </g>
                            </g>
                        </g>
                    </g>
                </g>
            </g>
        </g>
    </g>
</svg>
