<?xml version="1.0" encoding="UTF-8" standalone="no"?>
<!DOCTYPE svg PUBLIC "-//W3C//DTD SVG 1.1//EN" "http://www.w3.org/Graphics/SVG/1.1/DTD/svg11.dtd">
<svg width="100%" height="100%" viewBox="0 0 204 60" version="1.1" xmlns="http://www.w3.org/2000/svg" xmlns:xlink="http://www.w3.org/1999/xlink" xml:space="preserve" xmlns:serif="http://www.serif.com/" style="fill-rule:evenodd;clip-rule:evenodd;stroke-linejoin:round;stroke-miterlimit:2;">
    <g transform="matrix(1,0,0,1,-1450,-3585.26)">
        <g transform="matrix(1,0,0,1,7.7307e-12,-1931.74)">
            <g transform="matrix(0.740839,0,0,0.740839,1450,5517)">
                <g transform="matrix(-0.998618,-0.0525627,-0.0525627,0.998618,199.296,13.6504)">
                    <path d="M-0.355,-13.678C-4.12,-13.678 -7.187,-10.602 -7.19,-6.833C-7.187,-3.065 -4.119,0.009 -0.355,0.001C3.408,0 6.473,-3.074 6.468,-6.839C6.469,-10.608 3.402,-13.678 -0.355,-13.678" style="fill:rgb(124,120,118);"/>
                </g>
                <g transform="matrix(1,0,0,1,-289,-75.349)">
                    <path d="M469.816,151.063C467.227,150.093 464.08,149.355 460.233,148.924C463.251,147.803 466.641,145.882 470.066,143.242L470.346,143.025C482.207,133.763 494.41,115.904 493.201,92.547C502.479,121.936 489.875,145.244 477.287,155.691C475.534,153.93 473.221,152.371 470.065,151.157L469.816,151.063ZM426.663,143.296C425.877,143.364 425.073,143.395 424.246,143.395C418.98,143.395 414.918,141.999 412.06,139.204C410.646,137.807 409.583,136.238 408.869,134.494L408.82,134.373C407.804,131.824 407.531,128.905 407.998,125.613C408.187,124.282 408.479,123.01 408.869,121.799L408.923,121.634C410.073,118.163 412.059,115.186 414.882,112.711C418.179,109.816 422.152,108.161 426.82,107.743L426.97,107.73C427.72,107.664 428.488,107.632 429.275,107.632C435.837,107.631 440.516,109.616 443.306,113.588C445.556,116.791 446.344,120.736 445.679,125.42C444.936,130.68 442.65,134.989 438.834,138.356C435.588,141.211 431.581,142.854 426.82,143.282L426.663,143.296ZM371.697,142.624L359.957,142.624L360.744,137.08C358.674,139.357 356.682,140.987 354.768,141.942C352.852,142.911 350.593,143.394 347.996,143.394C344.54,143.395 341.985,142.314 340.319,140.16C338.665,138.008 338.158,134.671 338.793,130.184L341.877,108.412L354.496,108.412L351.834,127.228C351.532,129.375 351.694,130.9 352.327,131.803C352.966,132.704 353.965,133.155 355.348,133.154C356.85,133.155 358.161,132.553 359.287,131.348C360.418,130.141 361.197,127.989 361.643,124.877L363.971,108.413L376.539,108.413L371.697,142.624ZM503.085,108.412L512.071,124.71L497.622,142.625L511.232,142.625L519.929,131.607L524.416,142.624L539.079,142.623L529.634,124.709L543.12,108.413L529.255,108.413L521.859,117.945L517.992,108.412L503.085,108.412ZM404.728,118.777C403.346,118.135 402.208,117.811 401.346,117.811C399.702,117.812 398.327,118.527 397.221,119.932C395.642,121.937 394.461,125.675 393.685,131.155L392.061,142.624L379.441,142.624L384.278,108.412L396.04,108.413L395.25,114.01C396.731,111.585 398.131,109.915 399.462,109.002C400.793,108.092 402.344,107.632 404.113,107.633C405.642,107.633 407.224,108.04 408.869,108.852L409.001,108.919C409.31,109.076 409.623,109.248 409.937,109.433L408.868,111.352L404.728,118.777ZM470.014,105.279C469.997,105.321 469.981,105.363 469.963,105.407C469.791,105.881 469.607,106.884 469.388,108.412L470.065,108.414L475.375,108.413L474.015,118.013L470.065,118.012L468.03,118.013L464.548,142.624L451.946,142.623L455.429,118.012L450.743,118.012L452.096,108.413L456.79,108.413L457.005,106.86C457.208,105.465 457.569,103.921 458.089,102.25C458.621,100.578 459.354,99.202 460.297,98.146C461.235,97.08 462.476,96.225 463.988,95.567C465.448,94.94 467.473,94.615 470.065,94.589L470.417,94.588C472.62,94.587 475.773,94.848 479.902,95.387L477.387,103.317C475.924,103.055 474.726,102.931 473.795,102.932C472.672,102.931 471.83,103.134 471.279,103.524C470.782,103.882 470.383,104.427 470.065,105.154L470.014,105.279ZM312.228,142.497C311.376,142.583 310.558,142.623 309.776,142.624L289,142.624L295.683,95.386L312.398,95.388L316.467,95.388C320.548,95.385 323.774,95.969 326.141,97.125C328.489,98.29 330.344,99.95 331.683,102.118C333.018,104.298 333.852,106.817 334.189,109.695C334.523,112.575 334.462,115.627 334.003,118.845C333.288,123.898 332.189,127.814 330.69,130.592C329.201,133.377 327.338,135.708 325.118,137.578C322.902,139.461 320.628,140.714 318.298,141.34C316.176,141.908 314.211,142.289 312.399,142.479L312.228,142.497ZM426.94,134.394C428.192,134.114 429.32,133.44 430.325,132.375C431.698,130.934 432.604,128.639 433.053,125.443C433.471,122.488 433.195,120.276 432.232,118.827C431.267,117.386 429.915,116.657 428.19,116.656C427.748,116.657 427.318,116.7 426.904,116.786L426.821,116.803C425.534,117.085 424.373,117.771 423.334,118.855C421.939,120.331 421.018,122.573 420.593,125.577C420.161,128.64 420.431,130.888 421.418,132.342C422.387,133.804 423.77,134.541 425.562,134.54C425.995,134.541 426.413,134.502 426.819,134.419L426.94,134.394ZM312.539,131.484C313.234,131.328 313.823,131.126 314.307,130.879C315.635,130.209 316.769,129.019 317.712,127.337C318.653,125.657 319.383,122.916 319.917,119.131C320.628,114.129 320.333,110.709 319.031,108.86C317.817,107.146 315.609,106.224 312.398,106.1L311.639,106.089L308.152,106.089L304.503,131.889L307.925,131.891C309.715,131.89 311.205,131.766 312.399,131.514L312.539,131.484ZM555.016,118.103L555.016,108.414L557.942,108.414L559.696,115.022L561.434,108.414L564.364,108.414L564.364,118.102L562.551,118.104L562.549,110.477L560.629,118.103L558.749,118.102L556.831,110.477L556.832,118.103L555.016,118.103ZM548.212,118.102L548.212,110.054L545.341,110.054L545.343,108.414L553.032,108.413L553.033,110.051L550.169,110.053L550.17,118.102L548.212,118.102Z" style="fill:rgb(124,120,118);"/>
                </g>
            </g>
        </g>
    </g>
</svg>
