<?xml version="1.0" encoding="UTF-8" standalone="no"?>
<!DOCTYPE svg PUBLIC "-//W3C//DTD SVG 1.1//EN" "http://www.w3.org/Graphics/SVG/1.1/DTD/svg11.dtd">
<svg width="100%" height="100%" viewBox="0 0 23 24" version="1.1" xmlns="http://www.w3.org/2000/svg" xmlns:xlink="http://www.w3.org/1999/xlink" xml:space="preserve" xmlns:serif="http://www.serif.com/" style="fill-rule:evenodd;clip-rule:evenodd;stroke-linejoin:round;stroke-miterlimit:2;">
    <g transform="matrix(1,0,0,1,-1858.25,-456.613)">
        <g transform="matrix(1,0,0,1,1814,-2141.89)">
            <g transform="matrix(1.05625,0,0,0.8,-3.525,528.1)">
                <g transform="matrix(0.769231,0,0,1.07143,-1388.62,-773.071)">
                    <path d="M1878,3137L1892,3165L1864,3165L1878,3137Z" style="fill:rgb(252,202,7);"/>
                </g>
                <g transform="matrix(0.142857,0,0,0.857143,-212.286,-94.8571)">
                    <path d="M1878,3137L1892,3165L1864,3165L1878,3137Z" style="fill:rgb(23,31,42);"/>
                </g>
            </g>
        </g>
    </g>
</svg>
