<?xml version="1.0" encoding="UTF-8" standalone="no"?>
<!DOCTYPE svg PUBLIC "-//W3C//DTD SVG 1.1//EN" "http://www.w3.org/Graphics/SVG/1.1/DTD/svg11.dtd">
<svg width="100%" height="100%" viewBox="0 0 20 20" version="1.1" xmlns="http://www.w3.org/2000/svg" xmlns:xlink="http://www.w3.org/1999/xlink" xml:space="preserve" xmlns:serif="http://www.serif.com/" style="fill-rule:evenodd;clip-rule:evenodd;stroke-linejoin:round;stroke-miterlimit:2;">
    <g transform="matrix(1,0,0,1,-1450,-3875.77)">
        <g transform="matrix(1,0,0,1,1206,-2671.73)">
            <g transform="matrix(0.0130208,0,0,0.0130208,244,6547.5)">
                <path d="M0,1408C0,1478.72 57.279,1536 128.001,1536L1408,1536C1478.72,1536 1536,1478.72 1536,1408L1536,639.999C1536,569.28 1478.72,511.998 1408,511.998L1312,511.998L1312,128.001C1312,57.282 1254.72,0 1184,0L351.999,0C281.28,0 224.001,57.279 224.001,128.001L224.001,512.001L128.001,512.001C57.282,512.001 0,569.28 0,640.002L0,1408ZM1152,230.4L1152,601.599C1152,640.638 1120.64,672 1081.6,672L454.401,672C415.362,672 384,640.641 384,601.599L384,230.4C384,191.361 415.359,159.999 454.401,159.999L1081.6,159.999C1120.64,159.999 1152,191.361 1152,230.4ZM1248,1376L288,1376C252.801,1376 224.001,1347.2 224.001,1312C224.001,1276.8 252.801,1248 288,1248L1248,1248C1283.2,1248 1312,1276.8 1312,1312C1312,1347.2 1283.2,1376 1248,1376ZM224.001,1040C224.001,995.841 259.839,960 303.999,960C348.159,960 384,995.841 384,1040C384,1084.16 348.159,1120 303.999,1120C259.839,1120 224.001,1084.16 224.001,1040Z" style="fill:white;fill-rule:nonzero;"/>
            </g>
        </g>
    </g>
</svg>
