   於 System.Security.Permissions.FileIOPermission.QuickDemand(FileIOPermissionAccess access, String fullPath, Boolean checkForDuplicates, Boolean needFullPath)
   於 System.IO.Path.GetFullPath(String path)
   於 Web.Service.GoogleAnalyticsService.GetGaData(DateRange dateRange, String dimensionStr, String metricStr) 於 C:\Users\user\Downloads\github\m000355\m000355\Service\GoogleAnalyticsService.cs: 行 82
   於 Web.Service.GoogleAnalyticsService.GaTotalWebViewNum(DateRange dateRange) 於 C:\Users\user\Downloads\github\m000355\m000355\Service\GoogleAnalyticsService.cs: 行 186
   於 m000355.Controllers.SiteadminController.Index() 於 C:\Users\user\Downloads\github\m000355\m000355\Controllers\SiteadminController.cs: 行 112.
2022/7/13 下午 04:07:40：Message => 找不到檔案 'C:\Program Files (x86)\IIS Express\spatial-shore-356108-c6d16255d828.json'。，Main exception occurs System.IO.FileNotFoundException: 找不到檔案 'C:\Program Files (x86)\IIS Express\spatial-shore-356108-c6d16255d828.json'。
檔案名稱: 'C:\Program Files (x86)\IIS Express\spatial-shore-356108-c6d16255d828.json'
   於 System.IO.__Error.WinIOError(Int32 errorCode, String maybeFullPath)
   於 System.IO.FileStream.Init(String path, FileMode mode, FileAccess access, Int32 rights, Boolean useRights, FileShare share, Int32 bufferSize, FileOptions options, SECURITY_ATTRIBUTES secAttrs, String msgPath, Boolean bFromProxy, Boolean useLongPath, Boolean checkHost)
   於 System.IO.FileStream..ctor(String path, FileMode mode, FileAccess access, FileShare share)
   於 Google.Apis.Auth.OAuth2.GoogleCredential.FromFile(String path)
   於 Web.Service.GoogleAnalyticsService.GetGaData(DateRange dateRange, String dimensionStr, String metricStr) 於 C:\Users\user\Downloads\github\m000355\m000355\Service\GoogleAnalyticsService.cs: 行 82
   於 Web.Service.GoogleAnalyticsService.GaTotalWebViewNum(DateRange dateRange) 於 C:\Users\user\Downloads\github\m000355\m000355\Service\GoogleAnalyticsService.cs: 行 186
   於 m000355.Controllers.SiteadminController.Index() 於 C:\Users\user\Downloads\github\m000355\m000355\Controllers\SiteadminController.cs: 行 112.
2022/7/13 下午 04:08:33：Message => The service analyticsreporting has thrown an exception. HttpStatusCode is Forbidden. User does not have any Google Analytics account.，Main exception occurs The service analyticsreporting has thrown an exception.
HttpStatusCode is Forbidden.
Google.Apis.Requests.RequestError
User does not have any Google Analytics account. [403]
Errors [
	Message[User does not have any Google Analytics account.] Location[ - ] Reason[forbidden] Domain[global]
]

Google.GoogleApiException: The service analyticsreporting has thrown an exception. HttpStatusCode is Forbidden. User does not have any Google Analytics account.
   於 Google.Apis.Requests.ClientServiceRequest`1.<ParseResponse>d__35.MoveNext()
--- 先前擲回例外狀況之位置中的堆疊追蹤結尾 ---
   於 System.Runtime.ExceptionServices.ExceptionDispatchInfo.Throw()
   於 Google.Apis.Requests.ClientServiceRequest`1.Execute()
   於 Web.Service.GoogleAnalyticsService.GetGaData(DateRange dateRange, String dimensionStr, String metricStr) 於 C:\Users\user\Downloads\github\m000355\m000355\Service\GoogleAnalyticsService.cs: 行 116
   於 Web.Service.GoogleAnalyticsService.GaTotalWebViewNum(DateRange dateRange) 於 C:\Users\user\Downloads\github\m000355\m000355\Service\GoogleAnalyticsService.cs: 行 186
   於 m000355.Controllers.SiteadminController.Index() 於 C:\Users\user\Downloads\github\m000355\m000355\Controllers\SiteadminController.cs: 行 112.
2022/7/13 下午 04:10:01：Message => The service analyticsreporting has thrown an exception. HttpStatusCode is Forbidden. User does not have any Google Analytics account.，Main exception occurs The service analyticsreporting has thrown an exception.
HttpStatusCode is Forbidden.
Google.Apis.Requests.RequestError
User does not have any Google Analytics account. [403]
Errors [
	Message[User does not have any Google Analytics account.] Location[ - ] Reason[forbidden] Domain[global]
]

Google.GoogleApiException: The service analyticsreporting has thrown an exception. HttpStatusCode is Forbidden. User does not have any Google Analytics account.
   於 Google.Apis.Requests.ClientServiceRequest`1.<ParseResponse>d__35.MoveNext()
--- 先前擲回例外狀況之位置中的堆疊追蹤結尾 ---
   於 System.Runtime.ExceptionServices.ExceptionDispatchInfo.Throw()
   於 Google.Apis.Requests.ClientServiceRequest`1.Execute()
   於 Web.Service.GoogleAnalyticsService.GetGaData(DateRange dateRange, String dimensionStr, String metricStr) 於 C:\Users\user\Downloads\github\m000355\m000355\Service\GoogleAnalyticsService.cs: 行 116
   於 Web.Service.GoogleAnalyticsService.GaTotalWebViewNum(DateRange dateRange) 於 C:\Users\user\Downloads\github\m000355\m000355\Service\GoogleAnalyticsService.cs: 行 186
   於 m000355.Controllers.SiteadminController.Index() 於 C:\Users\user\Downloads\github\m000355\m000355\Controllers\SiteadminController.cs: 行 112.
2022/7/13 下午 04:21:06：Message => 找不到檔案 'C:\Program Files (x86)\IIS Express\spatial-shore-356108-c6d16255d828.json'。，Main exception occurs System.IO.FileNotFoundException: 找不到檔案 'C:\Program Files (x86)\IIS Express\spatial-shore-356108-c6d16255d828.json'。
檔案名稱: 'C:\Program Files (x86)\IIS Express\spatial-shore-356108-c6d16255d828.json'
   於 System.IO.__Error.WinIOError(Int32 errorCode, String maybeFullPath)
   於 System.IO.FileStream.Init(String path, FileMode mode, FileAccess access, Int32 rights, Boolean useRights, FileShare share, Int32 bufferSize, FileOptions options, SECURITY_ATTRIBUTES secAttrs, String msgPath, Boolean bFromProxy, Boolean useLongPath, Boolean checkHost)
   於 System.IO.FileStream..ctor(String path, FileMode mode, FileAccess access, FileShare share)
   於 Google.Apis.Auth.OAuth2.GoogleCredential.FromFile(String path)
   於 Web.Service.GoogleAnalyticsService.GetGaData(DateRange dateRange, String dimensionStr, String metricStr) 於 C:\Users\user\Downloads\github\m000355\m000355\Service\GoogleAnalyticsService.cs: 行 82
   於 Web.Service.GoogleAnalyticsService.GaTotalWebViewNum(DateRange dateRange) 於 C:\Users\user\Downloads\github\m000355\m000355\Service\GoogleAnalyticsService.cs: 行 186
   於 m000355.Controllers.SiteadminController.Index() 於 C:\Users\user\Downloads\github\m000355\m000355\Controllers\SiteadminController.cs: 行 112.
2022/7/13 下午 04:33:55：Message => 路徑中有不合法的字元。，Main exception occurs System.ArgumentException: 路徑中有不合法的字元。
   於 System.Security.Permissions.FileIOPermission.EmulateFileIOPermissionChecks(String fullPath)
   於 System.IO.FileSystemEnumerableIterator`1..ctor(String path, String originalUserPath, String searchPattern, SearchOption searchOption, SearchResultHandler`1 resultHandler, Boolean checkHost)
   於 System.IO.Directory.GetFiles(String path)
   於 Web.Service.GoogleAnalyticsService.GetGaData(DateRange dateRange, String dimensionStr, String metricStr) 於 C:\Users\user\Downloads\github\m000355\m000355\Service\GoogleAnalyticsService.cs: 行 84
   於 Web.Service.GoogleAnalyticsService.GaTotalWebViewNum(DateRange dateRange) 於 C:\Users\user\Downloads\github\m000355\m000355\Service\GoogleAnalyticsService.cs: 行 190
   於 m000355.Controllers.SiteadminController.Index() 於 C:\Users\user\Downloads\github\m000355\m000355\Controllers\SiteadminController.cs: 行 112.
2022/7/14 下午 03:35:22：Message => The service analyticsreporting has thrown an exception. HttpStatusCode is Forbidden. User does not have sufficient permissions for this profile.，Main exception occurs The service analyticsreporting has thrown an exception.
HttpStatusCode is Forbidden.
Google.Apis.Requests.RequestError
User does not have sufficient permissions for this profile. [403]
Errors [
	Message[User does not have sufficient permissions for this profile.] Location[ - ] Reason[forbidden] Domain[global]
]

Google.GoogleApiException: The service analyticsreporting has thrown an exception. HttpStatusCode is Forbidden. User does not have sufficient permissions for this profile.
   於 Google.Apis.Requests.ClientServiceRequest`1.<ParseResponse>d__35.MoveNext()
--- 先前擲回例外狀況之位置中的堆疊追蹤結尾 ---
   於 System.Runtime.ExceptionServices.ExceptionDispatchInfo.Throw()
   於 Google.Apis.Requests.ClientServiceRequest`1.Execute()
   於 Web.Service.GoogleAnalyticsService.GetGaData(DateRange dateRange, String dimensionStr, String metricStr) 於 C:\Users\user\Downloads\github\m000355\m000355\Service\GoogleAnalyticsService.cs: 行 117
   於 Web.Service.GoogleAnalyticsService.GaTotalWebViewNum(DateRange dateRange) 於 C:\Users\user\Downloads\github\m000355\m000355\Service\GoogleAnalyticsService.cs: 行 187
   於 m000355.Controllers.SiteadminController.Index() 於 C:\Users\user\Downloads\github\m000355\m000355\Controllers\SiteadminController.cs: 行 112.
2022/7/14 下午 03:36:42：Message => The service analyticsreporting has thrown an exception. HttpStatusCode is Forbidden. User does not have sufficient permissions for this profile.，Main exception occurs The service analyticsreporting has thrown an exception.
HttpStatusCode is Forbidden.
Google.Apis.Requests.RequestError
User does not have sufficient permissions for this profile. [403]
Errors [
	Message[User does not have sufficient permissions for this profile.] Location[ - ] Reason[forbidden] Domain[global]
]

Google.GoogleApiException: The service analyticsreporting has thrown an exception. HttpStatusCode is Forbidden. User does not have sufficient permissions for this profile.
   於 Google.Apis.Requests.ClientServiceRequest`1.<ParseResponse>d__35.MoveNext()
--- 先前擲回例外狀況之位置中的堆疊追蹤結尾 ---
   於 System.Runtime.ExceptionServices.ExceptionDispatchInfo.Throw()
   於 Google.Apis.Requests.ClientServiceRequest`1.Execute()
   於 Web.Service.GoogleAnalyticsService.GetGaData(DateRange dateRange, String dimensionStr, String metricStr) 於 C:\Users\user\Downloads\github\m000355\m000355\Service\GoogleAnalyticsService.cs: 行 117
   於 Web.Service.GoogleAnalyticsService.GaTotalWebViewNum(DateRange dateRange) 於 C:\Users\user\Downloads\github\m000355\m000355\Service\GoogleAnalyticsService.cs: 行 187
   於 m000355.Controllers.SiteadminController.Index() 於 C:\Users\user\Downloads\github\m000355\m000355\Controllers\SiteadminController.cs: 行 112.
2022/7/14 下午 05:19:24：Message => The service analyticsreporting has thrown an exception. HttpStatusCode is Forbidden. User does not have sufficient permissions for this profile.，Main exception occurs The service analyticsreporting has thrown an exception.
HttpStatusCode is Forbidden.
Google.Apis.Requests.RequestError
User does not have sufficient permissions for this profile. [403]
Errors [
	Message[User does not have sufficient permissions for this profile.] Location[ - ] Reason[forbidden] Domain[global]
]

Google.GoogleApiException: The service analyticsreporting has thrown an exception. HttpStatusCode is Forbidden. User does not have sufficient permissions for this profile.
   於 Google.Apis.Requests.ClientServiceRequest`1.<ParseResponse>d__35.MoveNext()
--- 先前擲回例外狀況之位置中的堆疊追蹤結尾 ---
   於 System.Runtime.ExceptionServices.ExceptionDispatchInfo.Throw()
   於 Google.Apis.Requests.ClientServiceRequest`1.Execute()
   於 Web.Service.GoogleAnalyticsService.GetGaData(DateRange dateRange, String dimensionStr, String metricStr) 於 C:\Users\user\Downloads\github\m000355\m000355\Service\GoogleAnalyticsService.cs: 行 117
   於 Web.Service.GoogleAnalyticsService.GaTotalWebViewNum(DateRange dateRange) 於 C:\Users\user\Downloads\github\m000355\m000355\Service\GoogleAnalyticsService.cs: 行 187
   於 m000355.Controllers.SiteadminController.Index() 於 C:\Users\user\Downloads\github\m000355\m000355\Controllers\SiteadminController.cs: 行 112.
2022/7/14 下午 05:42:58：Message => The service analyticsreporting has thrown an exception. HttpStatusCode is Forbidden. User does not have sufficient permissions for this profile.，Main exception occurs The service analyticsreporting has thrown an exception.
HttpStatusCode is Forbidden.
Google.Apis.Requests.RequestError
User does not have sufficient permissions for this profile. [403]
Errors [
	Message[User does not have sufficient permissions for this profile.] Location[ - ] Reason[forbidden] Domain[global]
]

Google.GoogleApiException: The service analyticsreporting has thrown an exception. HttpStatusCode is Forbidden. User does not have sufficient permissions for this profile.
   於 Google.Apis.Requests.ClientServiceRequest`1.<ParseResponse>d__35.MoveNext()
--- 先前擲回例外狀況之位置中的堆疊追蹤結尾 ---
   於 System.Runtime.ExceptionServices.ExceptionDispatchInfo.Throw()
   於 Google.Apis.Requests.ClientServiceRequest`1.Execute()
   於 Web.Service.GoogleAnalyticsService.GetGaData(DateRange dateRange, String dimensionStr, String metricStr) 於 C:\Users\user\Downloads\github\m000355\m000355\Service\GoogleAnalyticsService.cs: 行 117
   於 Web.Service.GoogleAnalyticsService.GaTotalWebViewNum(DateRange dateRange) 於 C:\Users\user\Downloads\github\m000355\m000355\Service\GoogleAnalyticsService.cs: 行 187
   於 m000355.Controllers.SiteadminController.Index() 於 C:\Users\user\Downloads\github\m000355\m000355\Controllers\SiteadminController.cs: 行 112.
2022/8/15 上午 09:33:35：Message => The service analyticsreporting has thrown an exception. HttpStatusCode is Forbidden. User does not have sufficient permissions for this profile.，Main exception occurs The service analyticsreporting has thrown an exception.
HttpStatusCode is Forbidden.
Google.Apis.Requests.RequestError
User does not have sufficient permissions for this profile. [403]
Errors [
	Message[User does not have sufficient permissions for this profile.] Location[ - ] Reason[forbidden] Domain[global]
]

Google.GoogleApiException: The service analyticsreporting has thrown an exception. HttpStatusCode is Forbidden. User does not have sufficient permissions for this profile.
   於 Google.Apis.Requests.ClientServiceRequest`1.<ParseResponse>d__35.MoveNext()
--- 先前擲回例外狀況之位置中的堆疊追蹤結尾 ---
   於 System.Runtime.ExceptionServices.ExceptionDispatchInfo.Throw()
   於 Google.Apis.Requests.ClientServiceRequest`1.Execute()
   於 Web.Service.GoogleAnalyticsService.GetGaData(DateRange dateRange, String dimensionStr, String metricStr) 於 C:\Users\user\Downloads\github\m000355\m000355\Service\GoogleAnalyticsService.cs: 行 117
   於 Web.Service.GoogleAnalyticsService.GaTotalWebViewNum(DateRange dateRange) 於 C:\Users\user\Downloads\github\m000355\m000355\Service\GoogleAnalyticsService.cs: 行 187
   於 m000355.Controllers.SiteadminController.Index() 於 C:\Users\user\Downloads\github\m000355\m000355\Controllers\SiteadminController.cs: 行 112.
2022/8/15 上午 09:50:23：Message => The service analyticsreporting has thrown an exception. HttpStatusCode is Forbidden. User does not have sufficient permissions for this profile.，Main exception occurs The service analyticsreporting has thrown an exception.
HttpStatusCode is Forbidden.
Google.Apis.Requests.RequestError
User does not have sufficient permissions for this profile. [403]
Errors [
	Message[User does not have sufficient permissions for this profile.] Location[ - ] Reason[forbidden] Domain[global]
]

Google.GoogleApiException: The service analyticsreporting has thrown an exception. HttpStatusCode is Forbidden. User does not have sufficient permissions for this profile.
   於 Google.Apis.Requests.ClientServiceRequest`1.<ParseResponse>d__35.MoveNext()
--- 先前擲回例外狀況之位置中的堆疊追蹤結尾 ---
   於 System.Runtime.ExceptionServices.ExceptionDispatchInfo.Throw()
   於 Google.Apis.Requests.ClientServiceRequest`1.Execute()
   於 Web.Service.GoogleAnalyticsService.GetGaData(DateRange dateRange, String dimensionStr, String metricStr) 於 C:\Users\user\Downloads\github\m000355\m000355\Service\GoogleAnalyticsService.cs: 行 117
   於 Web.Service.GoogleAnalyticsService.GaTotalWebViewNum(DateRange dateRange) 於 C:\Users\user\Downloads\github\m000355\m000355\Service\GoogleAnalyticsService.cs: 行 187
   於 m000355.Controllers.SiteadminController.Index() 於 C:\Users\user\Downloads\github\m000355\m000355\Controllers\SiteadminController.cs: 行 112.
2022/8/16 下午 01:38:02：Message => The service analyticsreporting has thrown an exception. HttpStatusCode is Forbidden. User does not have sufficient permissions for this profile.，Main exception occurs The service analyticsreporting has thrown an exception.
HttpStatusCode is Forbidden.
Google.Apis.Requests.RequestError
User does not have sufficient permissions for this profile. [403]
Errors [
	Message[User does not have sufficient permissions for this profile.] Location[ - ] Reason[forbidden] Domain[global]
]

Google.GoogleApiException: The service analyticsreporting has thrown an exception. HttpStatusCode is Forbidden. User does not have sufficient permissions for this profile.
   於 Google.Apis.Requests.ClientServiceRequest`1.<ParseResponse>d__35.MoveNext()
--- 先前擲回例外狀況之位置中的堆疊追蹤結尾 ---
   於 System.Runtime.ExceptionServices.ExceptionDispatchInfo.Throw()
   於 Google.Apis.Requests.ClientServiceRequest`1.Execute()
   於 Web.Service.GoogleAnalyticsService.GetGaData(DateRange dateRange, String dimensionStr, String metricStr) 於 C:\Users\user\Downloads\github\m000355\m000355\Service\GoogleAnalyticsService.cs: 行 117
   於 Web.Service.GoogleAnalyticsService.GaTotalWebViewNum(DateRange dateRange) 於 C:\Users\user\Downloads\github\m000355\m000355\Service\GoogleAnalyticsService.cs: 行 187
   於 m000355.Controllers.SiteadminController.Index() 於 C:\Users\user\Downloads\github\m000355\m000355\Controllers\SiteadminController.cs: 行 112.
2022/8/16 下午 01:40:01：Message => The service analyticsreporting has thrown an exception. HttpStatusCode is Forbidden. User does not have sufficient permissions for this profile.，Main exception occurs The service analyticsreporting has thrown an exception.
HttpStatusCode is Forbidden.
Google.Apis.Requests.RequestError
User does not have sufficient permissions for this profile. [403]
Errors [
	Message[User does not have sufficient permissions for this profile.] Location[ - ] Reason[forbidden] Domain[global]
]

Google.GoogleApiException: The service analyticsreporting has thrown an exception. HttpStatusCode is Forbidden. User does not have sufficient permissions for this profile.
   於 Google.Apis.Requests.ClientServiceRequest`1.<ParseResponse>d__35.MoveNext()
--- 先前擲回例外狀況之位置中的堆疊追蹤結尾 ---
   於 System.Runtime.ExceptionServices.ExceptionDispatchInfo.Throw()
   於 Google.Apis.Requests.ClientServiceRequest`1.Execute()
   於 Web.Service.GoogleAnalyticsService.GetGaData(DateRange dateRange, String dimensionStr, String metricStr) 於 C:\Users\user\Downloads\github\m000355\m000355\Service\GoogleAnalyticsService.cs: 行 117
   於 Web.Service.GoogleAnalyticsService.GaTotalWebViewNum(DateRange dateRange) 於 C:\Users\user\Downloads\github\m000355\m000355\Service\GoogleAnalyticsService.cs: 行 187
   於 m000355.Controllers.SiteadminController.Index() 於 C:\Users\user\Downloads\github\m000355\m000355\Controllers\SiteadminController.cs: 行 112.
2022/8/30 下午 04:17:12：Message => The service analyticsreporting has thrown an exception. HttpStatusCode is Forbidden. User does not have sufficient permissions for this profile.，Main exception occurs The service analyticsreporting has thrown an exception.
HttpStatusCode is Forbidden.
Google.Apis.Requests.RequestError
User does not have sufficient permissions for this profile. [403]
Errors [
	Message[User does not have sufficient permissions for this profile.] Location[ - ] Reason[forbidden] Domain[global]
]

Google.GoogleApiException: The service analyticsreporting has thrown an exception. HttpStatusCode is Forbidden. User does not have sufficient permissions for this profile.
   於 Google.Apis.Requests.ClientServiceRequest`1.<ParseResponse>d__35.MoveNext()
--- 先前擲回例外狀況之位置中的堆疊追蹤結尾 ---
   於 System.Runtime.ExceptionServices.ExceptionDispatchInfo.Throw()
   於 Google.Apis.Requests.ClientServiceRequest`1.Execute()
   於 Web.Service.GoogleAnalyticsService.GetGaData(DateRange dateRange, String dimensionStr, String metricStr) 於 C:\Users\user\Downloads\github\m000355\m000355\Service\GoogleAnalyticsService.cs: 行 117
   於 Web.Service.GoogleAnalyticsService.GaTotalWebViewNum(DateRange dateRange) 於 C:\Users\user\Downloads\github\m000355\m000355\Service\GoogleAnalyticsService.cs: 行 187
   於 m000355.Controllers.SiteadminController.Index() 於 C:\Users\user\Downloads\github\m000355\m000355\Controllers\SiteadminController.cs: 行 112.
2022/8/30 下午 04:23:14：Message => The service analyticsreporting has thrown an exception. HttpStatusCode is Forbidden. User does not have sufficient permissions for this profile.，Main exception occurs The service analyticsreporting has thrown an exception.
HttpStatusCode is Forbidden.
Google.Apis.Requests.RequestError
User does not have sufficient permissions for this profile. [403]
Errors [
	Message[User does not have sufficient permissions for this profile.] Location[ - ] Reason[forbidden] Domain[global]
]

Google.GoogleApiException: The service analyticsreporting has thrown an exception. HttpStatusCode is Forbidden. User does not have sufficient permissions for this profile.
   於 Google.Apis.Requests.ClientServiceRequest`1.<ParseResponse>d__35.MoveNext()
--- 先前擲回例外狀況之位置中的堆疊追蹤結尾 ---
   於 System.Runtime.ExceptionServices.ExceptionDispatchInfo.Throw()
   於 Google.Apis.Requests.ClientServiceRequest`1.Execute()
   於 Web.Service.GoogleAnalyticsService.GetGaData(DateRange dateRange, String dimensionStr, String metricStr) 於 C:\Users\user\Downloads\github\m000355\m000355\Service\GoogleAnalyticsService.cs: 行 117
   於 Web.Service.GoogleAnalyticsService.GaTotalWebViewNum(DateRange dateRange) 於 C:\Users\user\Downloads\github\m000355\m000355\Service\GoogleAnalyticsService.cs: 行 187
   於 m000355.Controllers.SiteadminController.Index() 於 C:\Users\user\Downloads\github\m000355\m000355\Controllers\SiteadminController.cs: 行 112.
2022/8/30 下午 04:27:50：Message => The service analyticsreporting has thrown an exception. HttpStatusCode is Forbidden. User does not have sufficient permissions for this profile.，Main exception occurs The service analyticsreporting has thrown an exception.
HttpStatusCode is Forbidden.
Google.Apis.Requests.RequestError
User does not have sufficient permissions for this profile. [403]
Errors [
	Message[User does not have sufficient permissions for this profile.] Location[ - ] Reason[forbidden] Domain[global]
]

Google.GoogleApiException: The service analyticsreporting has thrown an exception. HttpStatusCode is Forbidden. User does not have sufficient permissions for this profile.
   於 Google.Apis.Requests.ClientServiceRequest`1.<ParseResponse>d__35.MoveNext()
--- 先前擲回例外狀況之位置中的堆疊追蹤結尾 ---
   於 System.Runtime.ExceptionServices.ExceptionDispatchInfo.Throw()
   於 Google.Apis.Requests.ClientServiceRequest`1.Execute()
   於 Web.Service.GoogleAnalyticsService.GetGaData(DateRange dateRange, String dimensionStr, String metricStr) 於 C:\Users\user\Downloads\github\m000355\m000355\Service\GoogleAnalyticsService.cs: 行 117
   於 Web.Service.GoogleAnalyticsService.GaTotalWebViewNum(DateRange dateRange) 於 C:\Users\user\Downloads\github\m000355\m000355\Service\GoogleAnalyticsService.cs: 行 187
   於 m000355.Controllers.SiteadminController.Index() 於 C:\Users\user\Downloads\github\m000355\m000355\Controllers\SiteadminController.cs: 行 112.
2022/8/30 下午 04:31:12：Message => The service analyticsreporting has thrown an exception. HttpStatusCode is Forbidden. User does not have sufficient permissions for this profile.，Main exception occurs The service analyticsreporting has thrown an exception.
HttpStatusCode is Forbidden.
Google.Apis.Requests.RequestError
User does not have sufficient permissions for this profile. [403]
Errors [
	Message[User does not have sufficient permissions for this profile.] Location[ - ] Reason[forbidden] Domain[global]
]

Google.GoogleApiException: The service analyticsreporting has thrown an exception. HttpStatusCode is Forbidden. User does not have sufficient permissions for this profile.
   於 Google.Apis.Requests.ClientServiceRequest`1.<ParseResponse>d__35.MoveNext()
--- 先前擲回例外狀況之位置中的堆疊追蹤結尾 ---
   於 System.Runtime.ExceptionServices.ExceptionDispatchInfo.Throw()
   於 Google.Apis.Requests.ClientServiceRequest`1.Execute()
   於 Web.Service.GoogleAnalyticsService.GetGaData(DateRange dateRange, String dimensionStr, String metricStr) 於 C:\Users\user\Downloads\github\m000355\m000355\Service\GoogleAnalyticsService.cs: 行 117
   於 Web.Service.GoogleAnalyticsService.GaTotalWebViewNum(DateRange dateRange) 於 C:\Users\user\Downloads\github\m000355\m000355\Service\GoogleAnalyticsService.cs: 行 187
   於 m000355.Controllers.SiteadminController.Index() 於 C:\Users\user\Downloads\github\m000355\m000355\Controllers\SiteadminController.cs: 行 112.
2022/8/30 下午 04:33:02：Message => The service analyticsreporting has thrown an exception. HttpStatusCode is Forbidden. User does not have sufficient permissions for this profile.，Main exception occurs The service analyticsreporting has thrown an exception.
HttpStatusCode is Forbidden.
Google.Apis.Requests.RequestError
User does not have sufficient permissions for this profile. [403]
Errors [
	Message[User does not have sufficient permissions for this profile.] Location[ - ] Reason[forbidden] Domain[global]
]

Google.GoogleApiException: The service analyticsreporting has thrown an exception. HttpStatusCode is Forbidden. User does not have sufficient permissions for this profile.
   於 Google.Apis.Requests.ClientServiceRequest`1.<ParseResponse>d__35.MoveNext()
--- 先前擲回例外狀況之位置中的堆疊追蹤結尾 ---
   於 System.Runtime.ExceptionServices.ExceptionDispatchInfo.Throw()
   於 Google.Apis.Requests.ClientServiceRequest`1.Execute()
   於 Web.Service.GoogleAnalyticsService.GetGaData(DateRange dateRange, String dimensionStr, String metricStr) 於 C:\Users\user\Downloads\github\m000355\m000355\Service\GoogleAnalyticsService.cs: 行 117
   於 Web.Service.GoogleAnalyticsService.GaTotalWebViewNum(DateRange dateRange) 於 C:\Users\user\Downloads\github\m000355\m000355\Service\GoogleAnalyticsService.cs: 行 187
   於 m000355.Controllers.SiteadminController.Index() 於 C:\Users\user\Downloads\github\m000355\m000355\Controllers\SiteadminController.cs: 行 112.
2022/8/30 下午 05:31:24：Message => The service analyticsreporting has thrown an exception. HttpStatusCode is Forbidden. User does not have sufficient permissions for this profile.，Main exception occurs The service analyticsreporting has thrown an exception.
HttpStatusCode is Forbidden.
Google.Apis.Requests.RequestError
User does not have sufficient permissions for this profile. [403]
Errors [
	Message[User does not have sufficient permissions for this profile.] Location[ - ] Reason[forbidden] Domain[global]
]

Google.GoogleApiException: The service analyticsreporting has thrown an exception. HttpStatusCode is Forbidden. User does not have sufficient permissions for this profile.
   於 Google.Apis.Requests.ClientServiceRequest`1.<ParseResponse>d__35.MoveNext()
--- 先前擲回例外狀況之位置中的堆疊追蹤結尾 ---
   於 System.Runtime.ExceptionServices.ExceptionDispatchInfo.Throw()
   於 Google.Apis.Requests.ClientServiceRequest`1.Execute()
   於 Web.Service.GoogleAnalyticsService.GetGaData(DateRange dateRange, String dimensionStr, String metricStr) 於 C:\Users\user\Downloads\github\m000355\m000355\Service\GoogleAnalyticsService.cs: 行 117
   於 Web.Service.GoogleAnalyticsService.GaTotalWebViewNum(DateRange dateRange) 於 C:\Users\user\Downloads\github\m000355\m000355\Service\GoogleAnalyticsService.cs: 行 187
   於 m000355.Controllers.SiteadminController.Index() 於 C:\Users\user\Downloads\github\m000355\m000355\Controllers\SiteadminController.cs: 行 112.
2022/8/30 下午 05:36:14：Message => The service analyticsreporting has thrown an exception. HttpStatusCode is Forbidden. User does not have sufficient permissions for this profile.，Main exception occurs The service analyticsreporting has thrown an exception.
HttpStatusCode is Forbidden.
Google.Apis.Requests.RequestError
User does not have sufficient permissions for this profile. [403]
Errors [
	Message[User does not have sufficient permissions for this profile.] Location[ - ] Reason[forbidden] Domain[global]
]

Google.GoogleApiException: The service analyticsreporting has thrown an exception. HttpStatusCode is Forbidden. User does not have sufficient permissions for this profile.
   於 Google.Apis.Requests.ClientServiceRequest`1.<ParseResponse>d__35.MoveNext()
--- 先前擲回例外狀況之位置中的堆疊追蹤結尾 ---
   於 System.Runtime.ExceptionServices.ExceptionDispatchInfo.Throw()
   於 Google.Apis.Requests.ClientServiceRequest`1.Execute()
   於 Web.Service.GoogleAnalyticsService.GetGaData(DateRange dateRange, String dimensionStr, String metricStr) 於 C:\Users\user\Downloads\github\m000355\m000355\Service\GoogleAnalyticsService.cs: 行 117
   於 Web.Service.GoogleAnalyticsService.GaTotalWebViewNum(DateRange dateRange) 於 C:\Users\user\Downloads\github\m000355\m000355\Service\GoogleAnalyticsService.cs: 行 187
   於 m000355.Controllers.SiteadminController.Index() 於 C:\Users\user\Downloads\github\m000355\m000355\Controllers\SiteadminController.cs: 行 112.
2022/8/30 下午 05:36:18：Message => The service analyticsreporting has thrown an exception. HttpStatusCode is Forbidden. User does not have sufficient permissions for this profile.，Main exception occurs The service analyticsreporting has thrown an exception.
HttpStatusCode is Forbidden.
Google.Apis.Requests.RequestError
User does not have sufficient permissions for this profile. [403]
Errors [
	Message[User does not have sufficient permissions for this profile.] Location[ - ] Reason[forbidden] Domain[global]
]

Google.GoogleApiException: The service analyticsreporting has thrown an exception. HttpStatusCode is Forbidden. User does not have sufficient permissions for this profile.
   於 Google.Apis.Requests.ClientServiceRequest`1.<ParseResponse>d__35.MoveNext()
--- 先前擲回例外狀況之位置中的堆疊追蹤結尾 ---
   於 System.Runtime.ExceptionServices.ExceptionDispatchInfo.Throw()
   於 Google.Apis.Requests.ClientServiceRequest`1.Execute()
   於 Web.Service.GoogleAnalyticsService.GetGaData(DateRange dateRange, String dimensionStr, String metricStr) 於 C:\Users\user\Downloads\github\m000355\m000355\Service\GoogleAnalyticsService.cs: 行 117
   於 Web.Service.GoogleAnalyticsService.GaTotalWebViewNum(DateRange dateRange) 於 C:\Users\user\Downloads\github\m000355\m000355\Service\GoogleAnalyticsService.cs: 行 187
   於 m000355.Controllers.SiteadminController.Index() 於 C:\Users\user\Downloads\github\m000355\m000355\Controllers\SiteadminController.cs: 行 112.
2022/10/18 上午 11:30:07：Message => The service analyticsreporting has thrown an exception. HttpStatusCode is Forbidden. User does not have sufficient permissions for this profile.，Main exception occurs The service analyticsreporting has thrown an exception.
HttpStatusCode is Forbidden.
Google.Apis.Requests.RequestError
User does not have sufficient permissions for this profile. [403]
Errors [
	Message[User does not have sufficient permissions for this profile.] Location[ - ] Reason[forbidden] Domain[global]
]

Google.GoogleApiException: The service analyticsreporting has thrown an exception. HttpStatusCode is Forbidden. User does not have sufficient permissions for this profile.
   於 Google.Apis.Requests.ClientServiceRequest`1.<ParseResponse>d__35.MoveNext()
--- 先前擲回例外狀況之位置中的堆疊追蹤結尾 ---
   於 System.Runtime.ExceptionServices.ExceptionDispatchInfo.Throw()
   於 Google.Apis.Requests.ClientServiceRequest`1.Execute()
   於 Web.Service.GoogleAnalyticsService.GetGaData(DateRange dateRange, String dimensionStr, String metricStr) 於 C:\Users\user\Downloads\github\m000355\m000355\m000355\Service\GoogleAnalyticsService.cs: 行 117
   於 Web.Service.GoogleAnalyticsService.GaTotalWebViewNum(DateRange dateRange) 於 C:\Users\user\Downloads\github\m000355\m000355\m000355\Service\GoogleAnalyticsService.cs: 行 187
   於 m000355.Controllers.SiteadminController.Index() 於 C:\Users\user\Downloads\github\m000355\m000355\m000355\Controllers\SiteadminController.cs: 行 112.
