<?xml version="1.0" encoding="UTF-8" standalone="no"?>
<!DOCTYPE svg PUBLIC "-//W3C//DTD SVG 1.1//EN" "http://www.w3.org/Graphics/SVG/1.1/DTD/svg11.dtd">
<svg width="100%" height="100%" viewBox="0 0 24 30" version="1.1" xmlns="http://www.w3.org/2000/svg" xmlns:xlink="http://www.w3.org/1999/xlink" xml:space="preserve" xmlns:serif="http://www.serif.com/" style="fill-rule:evenodd;clip-rule:evenodd;stroke-linejoin:round;stroke-miterlimit:2;">
    <g transform="matrix(1,0,0,1,-275,-1126)">
        <g transform="matrix(1,0,0,1,0,50)">
            <g transform="matrix(0.08,0,0,0.078125,291.999,1088.93)">
                <path d="M0,52.968L-54,106.968C-58.687,111.656 -66.281,111.656 -70.968,106.968L-124.968,52.968C-129.656,48.281 -129.656,40.687 -124.968,36C-122.976,34.054 -120.418,32.808 -117.636,32.539L-116.484,32.511L-115.332,32.539C-112.472,32.82 -110.097,34.101 -108,36L-74.484,69.511L-74.484,-3.516C-74.484,-10.145 -69.113,-15.516 -62.484,-15.516C-55.855,-15.516 -50.484,-10.145 -50.484,-3.516L-50.484,69.511L-16.968,36C-12.281,31.312 -4.687,31.312 0,36C4.688,40.687 4.688,48.281 0,52.968M-14.484,164.484L-110.484,164.484C-117.113,164.484 -122.484,159.113 -122.484,152.484C-122.484,145.855 -117.113,140.484 -110.484,140.484L-14.484,140.484C-7.855,140.484 -2.484,145.855 -2.484,152.484C-2.484,159.113 -7.855,164.484 -14.484,164.484M39.516,-165.516L-98.484,-165.516L-98.484,-99.516C-98.484,-73.954 -120.922,-51.516 -146.484,-51.516L-212.484,-51.516L-212.484,170.484C-212.484,196.046 -190.046,218.484 -164.484,218.484L39.516,218.484C65.078,218.484 87.516,196.046 87.516,170.484L87.516,-117.516C87.516,-143.078 65.078,-165.516 39.516,-165.516M-122.484,-99.516L-122.484,-163.871C-124.418,-162.578 -123.613,-163.231 -124.968,-162L-208.968,-78C-210.199,-76.645 -209.546,-77.45 -210.839,-75.516L-146.484,-75.516C-134.175,-75.516 -122.484,-87.207 -122.484,-99.516" style="fill:rgb(252,174,7);fill-rule:nonzero;"/>
            </g>
        </g>
    </g>
</svg>
