<?xml version="1.0" encoding="UTF-8" standalone="no"?>
<!DOCTYPE svg PUBLIC "-//W3C//DTD SVG 1.1//EN" "http://www.w3.org/Graphics/SVG/1.1/DTD/svg11.dtd">
<svg width="100%" height="100%" viewBox="0 0 14 14" version="1.1" xmlns="http://www.w3.org/2000/svg" xmlns:xlink="http://www.w3.org/1999/xlink" xml:space="preserve" xmlns:serif="http://www.serif.com/" style="fill-rule:evenodd;clip-rule:evenodd;stroke-linejoin:round;stroke-miterlimit:2;">
    <g transform="matrix(1,0,0,1,-215,-526)">
        <g transform="matrix(1,0,0,1,5,0)">
            <g transform="matrix(1.07692,-7.84379e-33,7.84379e-33,1.07692,-11.0385,-600.462)">
                <g transform="matrix(1.08333,0,0,1.08333,-17.9167,-87.1667)">
                    <g transform="matrix(0.857143,6.24301e-33,-6.24301e-33,0.857143,206,1046)">
                    </g>
                </g>
                <g transform="matrix(9.95026e-17,1.625,-1.56,9.55225e-17,1853.65,704.75)">
                    <path d="M214,1050L218,1055L210,1055L214,1050Z" style="fill:rgb(252,174,7);"/>
                </g>
            </g>
        </g>
    </g>
</svg>
