<?xml version="1.0" encoding="UTF-8" standalone="no"?>
<!DOCTYPE svg PUBLIC "-//W3C//DTD SVG 1.1//EN" "http://www.w3.org/Graphics/SVG/1.1/DTD/svg11.dtd">
<svg width="100%" height="100%" viewBox="0 0 18 18" version="1.1" xmlns="http://www.w3.org/2000/svg" xmlns:xlink="http://www.w3.org/1999/xlink" xml:space="preserve" xmlns:serif="http://www.serif.com/" style="fill-rule:evenodd;clip-rule:evenodd;stroke-linejoin:round;stroke-miterlimit:2;">
    <g transform="matrix(1,0,0,1,-885,-732)">
        <g transform="matrix(1,0,0,1,-287,426.5)">
            <g transform="matrix(0.046875,0,0,0.046875,1172,304)">
                <path d="M384,104L384,344C384,383.75 351.75,416 312,416L72,416C32.25,416 0,383.75 0,344L0,104C0,64.25 32.25,32 72,32L312,32C351.75,32 384,64.25 384,104ZM341.333,104L341.333,344C341.333,360.194 328.194,373.333 312,373.333L72,373.333C55.806,373.333 42.667,360.194 42.667,344L42.667,104C42.667,87.806 55.806,74.667 72,74.667C72,74.667 312,74.667 312,74.667C328.194,74.667 341.333,87.806 341.333,104Z" style="fill:rgb(150,150,150);"/>
            </g>
        </g>
    </g>
</svg>
