<?xml version="1.0" encoding="UTF-8" standalone="no"?>
<!DOCTYPE svg PUBLIC "-//W3C//DTD SVG 1.1//EN" "http://www.w3.org/Graphics/SVG/1.1/DTD/svg11.dtd">
<svg width="100%" height="100%" viewBox="0 0 12 7" version="1.1" xmlns="http://www.w3.org/2000/svg" xmlns:xlink="http://www.w3.org/1999/xlink" xml:space="preserve" xmlns:serif="http://www.serif.com/" style="fill-rule:evenodd;clip-rule:evenodd;stroke-linejoin:round;stroke-miterlimit:2;">
    <g transform="matrix(1,0,0,1,-1428,-1753.5)">
        <g transform="matrix(1,0,0,1,250,592)">
            <g transform="matrix(0.8,0,0,0.777778,488.718,250.309)">
                <path d="M869.103,1180.53L876.603,1173.03L875.103,1171.53L869.103,1177.53L863.103,1171.53L861.603,1173.03L869.103,1180.53Z" style="fill:rgb(252,174,7);"/>
            </g>
        </g>
    </g>
</svg>
