<?xml version="1.0" encoding="UTF-8" standalone="no"?>
<!DOCTYPE svg PUBLIC "-//W3C//DTD SVG 1.1//EN" "http://www.w3.org/Graphics/SVG/1.1/DTD/svg11.dtd">
<svg width="100%" height="100%" viewBox="0 0 36 36" version="1.1" xmlns="http://www.w3.org/2000/svg" xmlns:xlink="http://www.w3.org/1999/xlink" xml:space="preserve" xmlns:serif="http://www.serif.com/" style="fill-rule:evenodd;clip-rule:evenodd;stroke-linejoin:round;stroke-miterlimit:2;">
    <g transform="matrix(1,0,0,1,-888,-1832)">
        <g transform="matrix(1,0,0,1,252,-1262)">
            <g transform="matrix(1,0,0,1,-252,0)">
                <g transform="matrix(1.5,0,0,1.5,-385.5,-1556)">
                    <circle cx="861" cy="3112" r="12" style="fill:white;"/>
                    <path d="M861,3100C867.623,3100 873,3105.38 873,3112C873,3118.62 867.623,3124 861,3124C854.377,3124 849,3118.62 849,3112C849,3105.38 854.377,3100 861,3100ZM861,3100.67C867.255,3100.67 872.333,3105.74 872.333,3112C872.333,3118.26 867.255,3123.33 861,3123.33C854.745,3123.33 849.667,3118.26 849.667,3112C849.667,3105.74 854.745,3100.67 861,3100.67Z" style="fill:rgb(220,220,220);"/>
                </g>
                <g transform="matrix(1,0,0,1,2.01759,0)">
                    <g transform="matrix(1,0,0,1,662.308,2542.58)">
                        <path d="M240.227,569.223L246.025,575.021L247.157,573.89L242.49,569.223L247.157,564.556L246.025,563.425L240.227,569.223Z" style="fill:rgb(252,174,7);"/>
                    </g>
                    <g transform="matrix(1.5,0,0,1,-135,848)">
                        <rect x="689" y="2258" width="1" height="12" style="fill:rgb(252,174,7);"/>
                    </g>
                </g>
            </g>
        </g>
    </g>
</svg>
